Building DAG of jobs...
MissingInputException in line 13 of /homes/rjonker/thema11-dataprocessing/Eindproject/PipelinePathogen:
Missing input files for rule all:
/homes/rjonker/thema11-dataprocessing/Eindproject/output/unmapped/sample.sam
/homes/rjonker/thema11-dataprocessing/Eindproject/output/unmapped/sample2.sam
