Building DAG of jobs...
Using shell: /usr/bin/bash
Provided cores: 1
Rules claiming more threads will be scaled down.
Job counts:
	count	jobs
	1	BowtieIndex
	1	all
	2	bowtie2human
	4

[Thu Apr 11 16:09:31 2019]
Job 3: Creating indexes for the pathogen and for the human genome

[Thu Apr 11 16:09:35 2019]
Finished job 3.
1 of 4 steps (25%) done

[Thu Apr 11 16:09:35 2019]
Job 1: Running Bowtie2toHuman to filter out the human genome

[Thu Apr 11 16:09:35 2019]
Error in rule bowtie2human:
    jobid: 1
    output: /homes/rjonker/thema11-dataprocessing/Eindproject/output/sample_R2.fastq, /homes/rjonker/thema11-dataprocessing/Eindproject/output/sample_R1.fastq, /homes/rjonker/thema11-dataprocessing/Eindproject/output/tmp/sample.sam
    log: log/Bowtie2toHuman.sample.log

RuleException:
CalledProcessError in line 51 of /homes/rjonker/thema11-dataprocessing/Eindproject/PipelinePathogen:
Command 'set -euo pipefail;  bowtie2 -x /homes/rjonker/thema11-dataprocessing/Eindproject/output/human_index/ -1 /homes/rjonker/thema11-dataprocessing/Eindproject/inputs/sample_R1.fastq -2 /homes/rjonker/thema11-dataprocessing/Eindproject/inputs/sample_R2.fastq --un-conc /homes/rjonker/thema11-dataprocessing/Eindproject/output/unmapped/sample_R%.fastq -S /homes/rjonker/thema11-dataprocessing/Eindproject/output/tmp/sample.sam --no-unal --no-hd --no-sq 2> log/Bowtie2toHuman.sample.log' returned non-zero exit status 2
  File "/homes/rjonker/thema11-dataprocessing/Eindproject/PipelinePathogen", line 51, in __rule_bowtie2human
  File "/usr/lib/python3.5/concurrent/futures/thread.py", line 55, in run
Removing output files of failed job bowtie2human since they might be corrupted:
/homes/rjonker/thema11-dataprocessing/Eindproject/output/tmp/sample.sam
Shutting down, this might take some time.
Exiting because a job execution failed. Look above for error message
Complete log: /homes/rjonker/thema11-dataprocessing/Eindproject/.snakemake/log/2019-04-11T160930.939401.snakemake.log
