Building DAG of jobs...
Using shell: /usr/bin/bash
Provided cores: 1
Rules claiming more threads will be scaled down.
Job counts:
	count	jobs
	1	all
	2	bowtie2human
	3

[Thu Apr 11 16:37:05 2019]
Job 1: Running Bowtie2toHuman to filter out the human genome

[Thu Apr 11 16:37:05 2019]
Error in rule bowtie2human:
    jobid: 1
    output: tmp/sample2_R2.fastq, sample2.sam, tmp/sample2_R1.fastq
    log: log/Bowtie2toHuman.sample2.log

RuleException:
CalledProcessError in line 50 of /homes/rjonker/thema11-dataprocessing/Eindproject/PipelinePathogen:
Command 'set -euo pipefail;  bowtie2 -x human_index/ -1 /homes/rjonker/thema11-dataprocessing/Eindproject/inputs/sample2_R1.fastq -2 /homes/rjonker/thema11-dataprocessing/Eindproject/inputs/sample2_R2.fastq --un-conc unmapped/sample2_R%.fastq -S sample2.sam --no-unal --no-hd --no-sq 2> log/Bowtie2toHuman.sample2.log' returned non-zero exit status 2
  File "/homes/rjonker/thema11-dataprocessing/Eindproject/PipelinePathogen", line 50, in __rule_bowtie2human
  File "/usr/lib/python3.5/concurrent/futures/thread.py", line 55, in run
Removing output files of failed job bowtie2human since they might be corrupted:
sample2.sam
Shutting down, this might take some time.
Exiting because a job execution failed. Look above for error message
Complete log: /homes/rjonker/thema11-dataprocessing/Eindproject/.snakemake/log/2019-04-11T163705.277862.snakemake.log
