Building DAG of jobs...
Using shell: /usr/bin/bash
Provided cores: 1
Rules claiming more threads will be scaled down.
Job counts:
	count	jobs
	1	BowtieIndex
	2	RemoveFailed
	2	SamToBam
	1	all
	2	bowtie2human
	2	bowtie2pathogen
	1	getAccessionName
	2	getAccessionNumbers
	13

[Mon Apr 15 22:22:22 2019]
Job 11: Creating indexes for the pathogen and for the human genome

[Mon Apr 15 22:22:31 2019]
Finished job 11.
1 of 13 steps (8%) done

[Mon Apr 15 22:22:31 2019]
Job 10: Running Bowtie2toHuman to filter out the human genome

[Mon Apr 15 22:22:31 2019]
Finished job 10.
2 of 13 steps (15%) done

[Mon Apr 15 22:22:31 2019]
Job 12: Running Bowtie2toHuman to filter out the human genome

[Mon Apr 15 22:22:31 2019]
Finished job 12.
3 of 13 steps (23%) done

[Mon Apr 15 22:22:31 2019]
Job 9: running Bowtie2toPathogen

[Mon Apr 15 22:22:32 2019]
Finished job 9.
4 of 13 steps (31%) done

[Mon Apr 15 22:22:32 2019]
Job 7: Converting all the .sam files into .bam files

[Mon Apr 15 22:22:32 2019]
Finished job 7.
5 of 13 steps (38%) done

[Mon Apr 15 22:22:32 2019]
Job 8: running Bowtie2toPathogen

[Mon Apr 15 22:22:32 2019]
Finished job 8.
6 of 13 steps (46%) done

[Mon Apr 15 22:22:32 2019]
Job 6: Converting all the .sam files into .bam files

[Mon Apr 15 22:22:32 2019]
Finished job 6.
7 of 13 steps (54%) done

[Mon Apr 15 22:22:32 2019]
Job 4: Removing allignment fails from bamfiles/

[Mon Apr 15 22:22:32 2019]
Finished job 4.
8 of 13 steps (62%) done

[Mon Apr 15 22:22:32 2019]
Job 5: Removing allignment fails from bamfiles/

[Mon Apr 15 22:22:32 2019]
Finished job 5.
9 of 13 steps (69%) done

[Mon Apr 15 22:22:32 2019]
Job 3: getting accessionnumbers from mapped bam

[Mon Apr 15 22:22:32 2019]
Finished job 3.
10 of 13 steps (77%) done

[Mon Apr 15 22:22:32 2019]
Job 2: getting accessionnumbers from mapped bam

[Mon Apr 15 22:22:32 2019]
Finished job 2.
11 of 13 steps (85%) done

[Mon Apr 15 22:22:32 2019]
Job 1: getting all the Genomenames from accession/sample2.txt accession/sample.txt pathogen_sub.fna and returning the pathogens into script.done

[Mon Apr 15 22:22:32 2019]
Error in rule getAccessionName:
    jobid: 1
    output: script.done

RuleException:
CalledProcessError in line 114 of /homes/rjonker/thema11-dataprocessing-eindopdracht/Eindproject/PipelinePathogen:
Command 'set -euo pipefail;  scripts/getAccessionName.py pathogen_sub.fna accession/sample2.txt accession/sample.txt
        touch script.done' returned non-zero exit status 126
  File "/homes/rjonker/thema11-dataprocessing-eindopdracht/Eindproject/PipelinePathogen", line 114, in __rule_getAccessionName
  File "/usr/lib/python3.5/concurrent/futures/thread.py", line 55, in run
Shutting down, this might take some time.
Exiting because a job execution failed. Look above for error message
Complete log: /homes/rjonker/thema11-dataprocessing-eindopdracht/Eindproject/.snakemake/log/2019-04-15T222221.795359.snakemake.log
