Building DAG of jobs...
Using shell: /usr/bin/bash
Provided cores: 1
Rules claiming more threads will be scaled down.
Job counts:
	count	jobs
	1	all
	1	getAccessionName
	2

[Mon Apr 15 22:28:42 2019]
Job 1: getting all the Genomenames from accession/sample2.txt accession/sample.txt pathogen_sub.fna and returning the pathogens into script.done

[Mon Apr 15 22:28:42 2019]
Error in rule getAccessionName:
    jobid: 1
    output: script.done

RuleException:
CalledProcessError in line 114 of /homes/rjonker/thema11-dataprocessing-eindopdracht/Eindproject/PipelinePathogen:
Command 'set -euo pipefail;  scripts/getAccessionName.py pathogen_sub.fna accession/sample2.txt accession/sample.txt
        touch script.done' returned non-zero exit status 126
  File "/homes/rjonker/thema11-dataprocessing-eindopdracht/Eindproject/PipelinePathogen", line 114, in __rule_getAccessionName
  File "/usr/lib/python3.5/concurrent/futures/thread.py", line 55, in run
Shutting down, this might take some time.
Exiting because a job execution failed. Look above for error message
Complete log: /homes/rjonker/thema11-dataprocessing-eindopdracht/Eindproject/.snakemake/log/2019-04-15T222836.721294.snakemake.log
